{
  "images" : [
    {
      "idiom" : "universal",
      "filename" : "in-app-suumay_0000s_0002s_0000s_0004s_0000_Check-Icon.png",
      "scale" : "1x"
    },
    {
      "idiom" : "universal",
      "scale" : "2x"
    },
    {
      "idiom" : "universal",
      "scale" : "3x"
    }
  ],
  "info" : {
    "version" : 1,
    "author" : "xcode"
  }
}